{
  "prepare_queue": {
    "installed": [],
    "uninstalled": []
  },
  "config_munge": {
    "files": {}
  },
  "installed_plugins": {
    "cordova-plugin-dialogs": {
      "PACKAGE_NAME": "com.pizzaria.quero.mais"
    },
    "cordova-plugin-firebase": {
      "PACKAGE_NAME": "com.pizzaria.quero.mais"
    },
    "cordova-plugin-inappbrowser": {
      "PACKAGE_NAME": "com.pizzaria.quero.mais"
    },
    "cordova-plugin-native-spinner": {
      "PACKAGE_NAME": "com.pizzaria.quero.mais"
    },
    "cordova-plugin-network-information": {
      "PACKAGE_NAME": "com.pizzaria.quero.mais"
    },
    "cordova-plugin-splashscreen": {
      "PACKAGE_NAME": "com.pizzaria.quero.mais"
    }
  },
  "dependent_plugins": {}
}